rtweet Exploration
…
Preferred Hashtags

Now that I know my preferred method of Tweeting, what do I Tweet about? One way to check is to look at hashtag usage.

How do Others Interact with my Tweets?

How long are my Tweets?

mh %>% 
  #filter(created_at_est >= "2019-01-10") # add filter for pre 280 character limit
  group_by(display_text_width) %>% 
  #tally(sort = TTRUE, wt = NULL)
  summarize(n())

## # A tibble: 237 x 2
##    display_text_width `n()`
##                 <dbl> <int>
##  1                  0     1
##  2                  2     1
##  3                  7     1
##  4                 11     1
##  5                 13     1
##  6                 15     1
##  7                 16     1
##  8                 17     1
##  9                 19     1
## 10                 22     2
## # ... with 227 more rows

I liked to push the limits of my Tweets. 140 used to be the character limit. Lets check again to see if that holds after the character limit increase (2017-11-07).

mh %>% 
  filter(created_at_est >= "2017-11-07") %>% 
  group_by(display_text_width) %>% 
  tally(sort = TRUE, wt = NULL)

## # A tibble: 232 x 2
##    display_text_width     n
##                 <dbl> <int>
##  1                140   229
##  2                139    38
##  3                144    17
##  4                 85     8
##  5                116     7
##  6                121     7
##  7                 86     6
##  8                101     6
##  9                112     6
## 10                124     6
## # ... with 222 more rows
…
Not unexpected. The median is 0, mean is ~3. I had one good tweet at 165!

Lets look at the distribution.

mh %>% 
  filter(is_retweet == "FALSE") %>% # Keeps only original Tweets
  group_by(favorite_count) %>% 
  summarize(n = n()) %>% 
  arrange(desc(favorite_count))

## # A tibble: 39 x 2
##    favorite_count     n
##             <int> <int>
##  1            165     1
##  2             76     1
##  3             74     1
##  4             67     1
##  5             52     1
##  6             47     1
##  7             43     1
##  8             42     1
##  9             41     1
## 10             38     1
## # ... with 29 more rows
…
